Exportar o no exportar, ese es el dilema
…
# Esta función divide las predicciones correctas por el total de predicciones. Nos da el accuracy del modelo.

accuracy <- function(x){sum(diag(x)/(sum(rowSums(x)))) * 100}

accuracy(confus_matrix)

## [1] 76.52524

Al parecer, favoreciendo el peso de los outliers (y manteniendo todo lo demás igual), mejora un poco el modelo: 76,52% de accuracy.

Valores alternativos de k

En esta sección se probarán distintos valores de k. Para ello, se crearán funciones que realicen todo el proceso y permitan obtener, como output, los valores de: verdaderos positivos, verdaderos negativos, falsos positivos, falsos negativos y al accuracy general del modelo. Seguidamente, se creará una tabla con todos estos resultados y se graficará la performance del modelo en función a los diferentes valores de k posibles.

## # A tibble: 140 x 7
##    k_value verdad_pos verdad_neg falso_neg falso_pos accuracy_fc   tot
##      <int>      <int>      <int>     <int>     <int>       <dbl> <int>
##  1       1       1228       1129       442       430        73.0  3229
##  2       2       1251       1138       439       403        72.3  3231
##  3       3       1296       1191       380       362        77.0  3229
##  4       4       1297       1185       377       369        76.6  3228
##  5       5       1308       1195       376       349        77.5  3228
##  6       6       1296       1209       364       359        77.5  3228
##  7       7       1318       1210       362       338        78.3  3228
##  8       8       1318       1208       368       346        78.1  3240
##  9       9       1325       1228       345       335        79.0  3233
## 10      10       1318       1217       350       338        78.9  3223
## # ... with 130 more rows
…
De la misma manera, se crea una tabla de valores alternativos para k, pero con la normalización min-max, para constatar que su performance es inferior con cualquier número de vecinos utilizados.

k_alternativos_n <- readRDS(file = "data/k_alternativos_n.RDS") %>% 
        select(-accuracy_m)

k_alternativos_n

## # A tibble: 140 x 7
##    k_value verdad_pos verdad_neg falso_neg falso_pos accuracy_fc   tot
##      <int>      <int>      <int>     <int>     <int>       <dbl> <int>
##  1       1       1220       1116       455       438        72.3  3229
##  2       2       1225       1114       446       425        72.4  3210
##  3       3       1291       1172       398       367        76.2  3228
##  4       4       1277       1157       414       374        74.9  3222
##  5       5       1294       1169       402       364        76.4  3229
##  6       6       1295       1178       402       361        76.5  3236
##  7       7       1325       1186       385       336        77.8  3232
##  8       8       1308       1181       383       338        77.3  3210
##  9       9       1317       1197       375       345        77.9  3234
## 10      10       1318       1198       381       344        77.9  3241
## # ... with 130 more rows
…
